{
  "fallback": "New version {{{v}}} of JSONPipes is released. Hoooraaay! See changelog: {{{link}}}",
  "color": "good",
  "title": "JSONPipes",
  "title_link": "{{{link}}}",
  "footer": "version {{{v}}}"
}
